Introduction to nomisr • nomisr
…
## # A tibble: 3 x 4
##   id         parentCode label.en          description.en   
##   <chr>      <chr>      <chr>             <chr>            
## 1 2092957703 <NA>       England and Wales England and Wales
## 2 2092957699 <NA>       England           England          
## 3 2092957700 2092957700 Wales             Wales

We can now pass a generic “type” string to the type parameter in nomis_get_metadata(), which returns all available geography types for dataset “NM_893_1”.

c <- nomis_get_metadata(id = "NM_893_1", concept = "geography", type = "type")

print(c)

## # A tibble: 22 x 3
##    id      label.en                          description.en                     
##    <chr>   <chr>                             <chr>                              
##  1 TYPE265 NHS area teams                    NHS area teams                     
##  2 TYPE266 clinical commissioning groups     clinical commissioning groups      
##  3 TYPE267 built-up areas including subdivi… built-up areas including subdivisi…
##  4 TYPE269 built-up areas                    built-up areas                     
##  5 TYPE273 national assembly for wales elec… national assembly for wales electo…
##  6 TYPE274 postcode areas                    postcode areas                     
##  7 TYPE275 postcode districts                postcode districts                 
##  8 TYPE276 postcode sectors                  postcode sectors                   
##  9 TYPE277 national assembly for wales cons… national assembly for wales consti…
## 10 TYPE279 parishes 2011                     parishes 2011                      
## # … with 12 more rows

Passing a specific type to the type parameter, in this case “TYPE460” for all post-2010 parliamentary constituencies, returns a tibble with geographic codes for those specific constituencies, which can be used to filter queries.

d <- nomis_get_metadata(id = "NM_893_1", concept = "geography", type = "TYPE460")

print(d)

## # A tibble: 573 x 4
##    id         parentCode label.en           description.en    
##    <chr>      <chr>      <chr>              <chr>             
##  1 1929379865 2013265921 Berwick-upon-Tweed Berwick-upon-Tweed
##  2 1929379880 2013265921 Bishop Auckland    Bishop Auckland   
##  3 1929379885 2013265921 Blaydon            Blaydon           
##  4 1929379886 2013265921 Blyth Valley       Blyth Valley      
##  5 1929379952 2013265921 City of Durham     City of Durham    
##  6 1929379969 2013265921 Darlington         Darlington        
##  7 1929379988 2013265921 Easington          Easington         
##  8 1929380020 2013265921 Gateshead          Gateshead         
##  9 1929380044 2013265921 Hartlepool         Hartlepool        
## 10 1929380057 2013265921 Hexham             Hexham            
## # … with 563 more rows
…
print(z)

## # A tibble: 44,310 x 40
##     DATE DATE_NAME DATE_CODE DATE_TYPE DATE_TYPECODE DATE_SORTORDER  GEOGRAPHY
##    <dbl>     <dbl>     <dbl> <chr>             <dbl>          <dbl>      <dbl>
##  1  2011      2011      2011 date                  0              0 1115684920
##  2  2011      2011      2011 date                  0              0 1115684920
##  3  2011      2011      2011 date                  0              0 1115684920
##  4  2011      2011      2011 date                  0              0 1115684920
##  5  2011      2011      2011 date                  0              0 1115684920
##  6  2011      2011      2011 date                  0              0 1115684920
##  7  2011      2011      2011 date                  0              0 1115684920
##  8  2011      2011      2011 date                  0              0 1115684920
##  9  2011      2011      2011 date                  0              0 1115684920
## 10  2011      2011      2011 date                  0              0 1115684920
## # … with 44,300 more rows, and 33 more variables: GEOGRAPHY_NAME <chr>,
## #   GEOGRAPHY_CODE <chr>, GEOGRAPHY_TYPE <chr>, GEOGRAPHY_TYPECODE <dbl>,
## #   GEOGRAPHY_SORTORDER <dbl>, C_TENHUK11 <dbl>, C_TENHUK11_NAME <chr>,
## #   C_TENHUK11_CODE <chr>, C_TENHUK11_TYPE <chr>, C_TENHUK11_TYPECODE <dbl>,
## #   C_TENHUK11_SORTORDER <dbl>, C_PPBROOMHEW11 <dbl>,
## #   C_PPBROOMHEW11_NAME <chr>, C_PPBROOMHEW11_CODE <chr>,
## #   C_PPBROOMHEW11_TYPE <chr>, C_PPBROOMHEW11_TYPECODE <dbl>,
## #   C_PPBROOMHEW11_SORTORDER <dbl>, C_AHTHUK11 <dbl>, C_AHTHUK11_NAME <chr>,
## #   C_AHTHUK11_CODE <chr>, C_AHTHUK11_TYPE <chr>, C_AHTHUK11_TYPECODE <dbl>,
…
print(x)

## # A tibble: 420 x 40
##     DATE DATE_NAME DATE_CODE DATE_TYPE DATE_TYPECODE DATE_SORTORDER  GEOGRAPHY
##    <dbl>     <dbl>     <dbl> <chr>             <dbl>          <dbl>      <dbl>
##  1  2011      2011      2011 date                  0              0 1929380119
##  2  2011      2011      2011 date                  0              0 1929380119
##  3  2011      2011      2011 date                  0              0 1929380119
##  4  2011      2011      2011 date                  0              0 1929380119
##  5  2011      2011      2011 date                  0              0 1929380119
##  6  2011      2011      2011 date                  0              0 1929380119
##  7  2011      2011      2011 date                  0              0 1929380119
##  8  2011      2011      2011 date                  0              0 1929380119
##  9  2011      2011      2011 date                  0              0 1929380119
## 10  2011      2011      2011 date                  0              0 1929380119
## # … with 410 more rows, and 33 more variables: GEOGRAPHY_NAME <chr>,
## #   GEOGRAPHY_CODE <chr>, GEOGRAPHY_TYPE <chr>, GEOGRAPHY_TYPECODE <dbl>,
## #   GEOGRAPHY_SORTORDER <dbl>, C_TENHUK11 <dbl>, C_TENHUK11_NAME <chr>,
## #   C_TENHUK11_CODE <chr>, C_TENHUK11_TYPE <chr>, C_TENHUK11_TYPECODE <dbl>,
## #   C_TENHUK11_SORTORDER <dbl>, C_PPBROOMHEW11 <dbl>,
## #   C_PPBROOMHEW11_NAME <chr>, C_PPBROOMHEW11_CODE <chr>,
## #   C_PPBROOMHEW11_TYPE <chr>, C_PPBROOMHEW11_TYPECODE <dbl>,
## #   C_PPBROOMHEW11_SORTORDER <dbl>, C_AHTHUK11 <dbl>, C_AHTHUK11_NAME <chr>,
## #   C_AHTHUK11_CODE <chr>, C_AHTHUK11_TYPE <chr>, C_AHTHUK11_TYPECODE <dbl>,
…
