Work and Health Indicators with nomisr • nomisr
…
# use rbind to combine all of the above objects together to create a single object containing all geographies of interest and select only the id, parentCode, label.en and type  
EN_geos <- rbind(EN_LAs, EN_CAs, EN_Regions, EN_Country) %>%
  select(id, parentCode, label.en, type)
print(EN_geos)

## # A tibble: 346 x 4
##    id         parentCode label.en              type
##    <chr>      <chr>      <chr>                <dbl>
##  1 1946157057 2013265921 Darlington             464
##  2 1946157058 2013265921 County Durham          464
##  3 1946157059 2013265921 Hartlepool             464
##  4 1946157060 2013265921 Middlesbrough          464
##  5 1946157061 2013265921 Northumberland         464
##  6 1946157062 2013265921 Redcar and Cleveland   464
##  7 1946157063 2013265921 Stockton-on-Tees       464
##  8 1946157064 2013265921 Gateshead              464
##  9 1946157065 2013265921 Newcastle upon Tyne    464
## 10 1946157066 2013265921 North Tyneside         464
## # … with 336 more rows
…
print(working_age_pop)

## # A tibble: 1,384 x 28
##    DATE  DATE_NAME DATE_CODE DATE_TYPE DATE_TYPECODE DATE_SORTORDER GEOGRAPHY
##    <chr> <chr>     <chr>     <chr>             <dbl>          <dbl>     <dbl>
##  1 2020… Jul 2019… 2020-06   date                  0              0    1.95e9
##  2 2020… Jul 2019… 2020-06   date                  0              0    1.95e9
##  3 2020… Jul 2019… 2020-06   date                  0              0    1.95e9
##  4 2020… Jul 2019… 2020-06   date                  0              0    1.95e9
##  5 2020… Jul 2019… 2020-06   date                  0              0    1.95e9
##  6 2020… Jul 2019… 2020-06   date                  0              0    1.95e9
##  7 2020… Jul 2019… 2020-06   date                  0              0    1.95e9
##  8 2020… Jul 2019… 2020-06   date                  0              0    1.95e9
##  9 2020… Jul 2019… 2020-06   date                  0              0    1.95e9
## 10 2020… Jul 2019… 2020-06   date                  0              0    1.95e9
## # … with 1,374 more rows, and 21 more variables: GEOGRAPHY_NAME <chr>,
## #   GEOGRAPHY_CODE <chr>, GEOGRAPHY_TYPE <chr>, GEOGRAPHY_TYPECODE <dbl>,
## #   GEOGRAPHY_SORTORDER <dbl>, VARIABLE <dbl>, VARIABLE_NAME <chr>,
## #   VARIABLE_CODE <dbl>, VARIABLE_TYPE <chr>, VARIABLE_TYPECODE <dbl>,
## #   VARIABLE_SORTORDER <dbl>, MEASURES <dbl>, MEASURES_NAME <chr>,
## #   OBS_VALUE <dbl>, OBS_STATUS <chr>, OBS_STATUS_NAME <chr>, OBS_CONF <lgl>,
## #   OBS_CONF_NAME <chr>, URN <chr>, RECORD_OFFSET <dbl>, RECORD_COUNT <dbl>
…
# FIRST STACK: Working age population

# Need to extract the denominator from our previously created working_age_pop dataframe:
first_stack <- working_age_pop %>%
  filter(MEASURES_NAME == "Denominator") %>%
  select(DATE_NAME, GEOGRAPHY, GEOGRAPHY_NAME, GEOGRAPHY_CODE,
         VARIABLE_NAME, OBS_VALUE) %>%
  mutate(grouping = 1)

# replace na with 0
first_stack[is.na(first_stack)] <- 0
print(first_stack)

## # A tibble: 346 x 7
##    DATE_NAME GEOGRAPHY GEOGRAPHY_NAME GEOGRAPHY_CODE VARIABLE_NAME OBS_VALUE
##    <chr>         <dbl> <chr>          <chr>          <chr>             <dbl>
##  1 Jul 2019…    1.95e9 Darlington     E06000005      Economic act…     63400
##  2 Jul 2019…    1.95e9 County Durham  E06000047      Economic act…    323600
##  3 Jul 2019…    1.95e9 Hartlepool     E06000001      Economic act…     56100
##  4 Jul 2019…    1.95e9 Middlesbrough  E06000002      Economic act…     88000
##  5 Jul 2019…    1.95e9 Northumberland E06000057      Economic act…    183400
##  6 Jul 2019…    1.95e9 Redcar and Cl… E06000003      Economic act…     80800
##  7 Jul 2019…    1.95e9 Stockton-on-T… E06000004      Economic act…    119700
##  8 Jul 2019…    1.95e9 Gateshead      E08000037      Economic act…    127800
##  9 Jul 2019…    1.95e9 Newcastle upo… E08000021      Economic act…    200100
## 10 Jul 2019…    1.95e9 North Tyneside E08000022      Economic act…    126400
## # … with 336 more rows, and 1 more variable: grouping <dbl>
…
# Bind the econ_active and econ_inactive datasets together to create the second stack:
second_stack <- rbind(econ_active, econ_inactive) %>%
  arrange(GEOGRAPHY) %>%
  mutate(grouping = 2)

# replace na with 0
second_stack[is.na(second_stack)] <- 0
print(second_stack)

## # A tibble: 692 x 7
##    DATE_NAME GEOGRAPHY GEOGRAPHY_NAME GEOGRAPHY_CODE VARIABLE_NAME OBS_VALUE
##    <chr>         <dbl> <chr>          <chr>          <chr>             <dbl>
##  1 Jul 2019…    1.85e9 Greater Manch… E47000001      economically…   1377900
##  2 Jul 2019…    1.85e9 Greater Manch… E47000001      % who are ec…    409600
##  3 Jul 2019…    1.85e9 Sheffield Cit… E47000002      economically…    674800
##  4 Jul 2019…    1.85e9 Sheffield Cit… E47000002      % who are ec…    206500
##  5 Jul 2019…    1.85e9 West Yorkshire E47000003      economically…   1113600
##  6 Jul 2019…    1.85e9 West Yorkshire E47000003      % who are ec…    339100
##  7 Jul 2019…    1.85e9 Liverpool Cit… E47000004      economically…    739600
##  8 Jul 2019…    1.85e9 Liverpool Cit… E47000004      % who are ec…    226400
##  9 Jul 2019…    1.85e9 Tees Valley    E47000006      economically…    304500
## 10 Jul 2019…    1.85e9 Tees Valley    E47000006      % who are ec…    103600
## # … with 682 more rows, and 1 more variable: grouping <dbl>
…
# Bind datasets together to create third stack:
third_stack <- rbind(employed, unemployed, want_job, dont_want_job) %>%
  arrange(GEOGRAPHY) %>%
  mutate(grouping = 3)

# replace na with 0
third_stack[is.na(third_stack)] <- 0
print(third_stack)

## # A tibble: 1,384 x 7
##    DATE_NAME GEOGRAPHY GEOGRAPHY_NAME GEOGRAPHY_CODE VARIABLE_NAME OBS_VALUE
##    <chr>         <dbl> <chr>          <chr>          <chr>             <dbl>
##  1 Jul 2019…    1.85e9 Greater Manch… E47000001      Employment r…   1309600
##  2 Jul 2019…    1.85e9 Greater Manch… E47000001      Unemployment…     68300
##  3 Jul 2019…    1.85e9 Greater Manch… E47000001      % of economi…     75100
##  4 Jul 2019…    1.85e9 Greater Manch… E47000001      % of economi…    334500
##  5 Jul 2019…    1.85e9 Sheffield Cit… E47000002      Employment r…    645300
##  6 Jul 2019…    1.85e9 Sheffield Cit… E47000002      Unemployment…     29500
##  7 Jul 2019…    1.85e9 Sheffield Cit… E47000002      % of economi…     52600
##  8 Jul 2019…    1.85e9 Sheffield Cit… E47000002      % of economi…    153900
##  9 Jul 2019…    1.85e9 West Yorkshire E47000003      Employment r…   1069900
## 10 Jul 2019…    1.85e9 West Yorkshire E47000003      Unemployment…     43700
## # … with 1,374 more rows, and 1 more variable: grouping <dbl>
…
# Bind two datasets together to create the fourth stack:
fourth_stack <- rbind(econ_active_missing, reasons) %>%
  arrange(GEOGRAPHY) %>%
  mutate(grouping = 4)

# replace na with 0
fourth_stack[is.na(fourth_stack)] <- 0
print(fourth_stack)

## # A tibble: 2,768 x 7
##    DATE_NAME GEOGRAPHY GEOGRAPHY_NAME GEOGRAPHY_CODE VARIABLE_NAME OBS_VALUE
##    <chr>         <dbl> <chr>          <chr>          <chr>             <dbl>
##  1 Jul 2019…    1.85e9 Greater Manch… E47000001      ""              1377900
##  2 Jul 2019…    1.85e9 Greater Manch… E47000001      "% of econom…    117900
##  3 Jul 2019…    1.85e9 Greater Manch… E47000001      "% of econom…     94800
##  4 Jul 2019…    1.85e9 Greater Manch… E47000001      "% of econom…      6600
##  5 Jul 2019…    1.85e9 Greater Manch… E47000001      "% of econom…    105000
##  6 Jul 2019…    1.85e9 Greater Manch… E47000001      "% of econom…      2000
##  7 Jul 2019…    1.85e9 Greater Manch… E47000001      "% of econom…     43900
##  8 Jul 2019…    1.85e9 Greater Manch… E47000001      "% of econom…     39600
##  9 Jul 2019…    1.85e9 Sheffield Cit… E47000002      ""               674800
## 10 Jul 2019…    1.85e9 Sheffield Cit… E47000002      "% of econom…     51500
## # … with 2,758 more rows, and 1 more variable: grouping <dbl>
…
pie_data$group[pie_data$group == 45] <- 1
pie_data$group[pie_data$group == 84] <- 1
pie_data$group[pie_data$group == 111] <- 1
pie_data$group[pie_data$group == 1715] <- 2
pie_data$group[pie_data$group == 1716] <- 2
pie_data$group[pie_data$group == 1717] <- 2

pie_data <- pie_data %>%
  arrange(GEOGRAPHY_NAME) %>%
  select(DATE_NAME, GEOGRAPHY, GEOGRAPHY_NAME, GEOGRAPHY_CODE, VARIABLE_NAME,
         OBS_VALUE, group)
print(pie_data)

## # A tibble: 2,076 x 7
##    DATE_NAME GEOGRAPHY GEOGRAPHY_NAME GEOGRAPHY_CODE VARIABLE_NAME OBS_VALUE
##    <chr>         <dbl> <chr>          <chr>          <chr>             <dbl>
##  1 Jul 2019…    1.95e9 Adur           E07000223      Employment r…      85.6
##  2 Jul 2019…    1.95e9 Adur           E07000223      Unemployment…       0  
##  3 Jul 2019…    1.95e9 Adur           E07000223      % who are ec…      12.1
##  4 Jul 2019…    1.95e9 Adur           E07000223      % In employm…      56.3
##  5 Jul 2019…    1.95e9 Adur           E07000223      % Unemployed…       0  
##  6 Jul 2019…    1.95e9 Adur           E07000223      % Inactive w…      43.7
##  7 Jul 2019…    1.95e9 Allerdale      E07000026      Employment r…      83.7
##  8 Jul 2019…    1.95e9 Allerdale      E07000026      Unemployment…       4.3
##  9 Jul 2019…    1.95e9 Allerdale      E07000026      % who are ec…      12.5
## 10 Jul 2019…    1.95e9 Allerdale      E07000026      % In employm…      48  
## # … with 2,066 more rows, and 1 more variable: group <dbl>
…
# Link the two tables together to calculate the percentage contributed
ESA_total_final <- left_join(ESA_data_condition, ESA_total, by = c("GEOGRAPHY_CODE", "GEOGRAPHY_NAME")) %>%
  select(DATE_NAME: ICDGP_CONDITION_NAME, SEX_NAME, total, tot) %>%
  mutate(PERC = total / tot *100,
         PERC = round(PERC, 1)) %>%
  arrange(GEOGRAPHY_CODE, desc(PERC))
print(ESA_total_final)

## # A tibble: 7,958 x 10
## # Groups:   GEOGRAPHY_CODE, ICDGP_CONDITION [7,958]
##    DATE_NAME GEOGRAPHY.x GEOGRAPHY_NAME GEOGRAPHY_CODE ICDGP_CONDITION
##    <chr>           <dbl> <chr>          <chr>                    <dbl>
##  1 November…  1946157059 Hartlepool     E06000001                    5
##  2 November…  1946157059 Hartlepool     E06000001                   13
##  3 November…  1946157059 Hartlepool     E06000001                   18
##  4 November…  1946157059 Hartlepool     E06000001                    6
##  5 November…  1946157059 Hartlepool     E06000001                    9
##  6 November…  1946157059 Hartlepool     E06000001                   10
##  7 November…  1946157059 Hartlepool     E06000001                    2
##  8 November…  1946157059 Hartlepool     E06000001                   19
##  9 November…  1946157059 Hartlepool     E06000001                   21
## 10 November…  1946157059 Hartlepool     E06000001                   11
## # … with 7,948 more rows, and 5 more variables: ICDGP_CONDITION_NAME <chr>,
## #   SEX_NAME <chr>, total <dbl>, tot <dbl>, PERC <dbl>

# Remove factors from the above table & rank them based on highest to lowest
# Can then use this as a lookup for the treemap and which conditions to plot
ESA_condition_rank <- ESA_total_final %>%
  filter(ICDGP_CONDITION != 21) %>%
  arrange(GEOGRAPHY_CODE, desc(PERC)) %>%
  group_by(GEOGRAPHY_CODE) %>%
  mutate(rank = 1:n()) %>%
  select(GEOGRAPHY_CODE, GEOGRAPHY_NAME, ICDGP_CONDITION: ICDGP_CONDITION_NAME, rank)
print(ESA_condition_rank)

## # A tibble: 7,612 x 5
## # Groups:   GEOGRAPHY_CODE [346]
##    GEOGRAPHY_CODE GEOGRAPHY_NAME ICDGP_CONDITION ICDGP_CONDITION_NAME       rank
##    <chr>          <chr>                    <dbl> <chr>                     <int>
##  1 E06000001      Hartlepool                   5 Mental and behavioural d…     1
##  2 E06000001      Hartlepool                  13 Diseases of the musculos…     2
##  3 E06000001      Hartlepool                  18 Symptoms, signs and abno…     3
##  4 E06000001      Hartlepool                   6 Diseases of the nervous …     4
##  5 E06000001      Hartlepool                   9 Diseases of the circulat…     5
##  6 E06000001      Hartlepool                  10 Diseases of the respirat…     6
##  7 E06000001      Hartlepool                   2 Neoplasms                     7
##  8 E06000001      Hartlepool                  19 Injury, poisoning and ce…     8
##  9 E06000001      Hartlepool                  11 Diseases of the digestiv…     9
## 10 E06000001      Hartlepool                   4 Endocrine, nutritional a…    10
## # … with 7,602 more rows
…
#Calculate observations based on new age-bands:
treemap_data_final <- agegrp1 %>%
  arrange(GEOGRAPHY, ICDGP_CONDITION_NAME, NEW_AGE) %>%
  group_by(GEOGRAPHY, ICDGP_CONDITION_NAME, NEW_AGE) %>%
  mutate(OBS = sum(OBS_VALUE)) %>%
  select(DATE_NAME, GEOGRAPHY: GEOGRAPHY_CODE, ICDGP_CONDITION: ICDGP_CONDITION_NAME, SEX_NAME, NEW_AGE, OBS) %>%
  distinct(GEOGRAPHY, ICDGP_CONDITION_NAME, NEW_AGE, .keep_all = TRUE)
print(treemap_data_final)

## # A tibble: 32,870 x 9
## # Groups:   GEOGRAPHY, ICDGP_CONDITION_NAME, NEW_AGE [32,870]
##    DATE_NAME GEOGRAPHY GEOGRAPHY_NAME GEOGRAPHY_CODE ICDGP_CONDITION
##    <chr>         <dbl> <chr>          <chr>                    <dbl>
##  1 November…    1.85e9 Greater Manch… E47000001                   16
##  2 November…    1.85e9 Greater Manch… E47000001                   16
##  3 November…    1.85e9 Greater Manch… E47000001                   16
##  4 November…    1.85e9 Greater Manch… E47000001                   16
##  5 November…    1.85e9 Greater Manch… E47000001                   16
##  6 November…    1.85e9 Greater Manch… E47000001                    1
##  7 November…    1.85e9 Greater Manch… E47000001                    1
##  8 November…    1.85e9 Greater Manch… E47000001                    1
##  9 November…    1.85e9 Greater Manch… E47000001                    1
## 10 November…    1.85e9 Greater Manch… E47000001                    1
## # … with 32,860 more rows, and 4 more variables: ICDGP_CONDITION_NAME <chr>,
## #   SEX_NAME <chr>, NEW_AGE <chr>, OBS <dbl>
…
print(treemap)

## # A tibble: 12,110 x 12
## # Groups:   GEOGRAPHY, ICDGP_CONDITION_NAME, NEW_AGE [12,110]
##    DATE_NAME GEOGRAPHY GEOGRAPHY_NAME GEOGRAPHY_CODE ICDGP_CONDITION
##    <chr>         <dbl> <chr>          <chr>                    <dbl>
##  1 November…    1.95e9 Hartlepool     E06000001                    5
##  2 November…    1.95e9 Hartlepool     E06000001                    5
##  3 November…    1.95e9 Hartlepool     E06000001                    5
##  4 November…    1.95e9 Hartlepool     E06000001                    5
##  5 November…    1.95e9 Hartlepool     E06000001                    5
##  6 November…    1.95e9 Hartlepool     E06000001                   13
##  7 November…    1.95e9 Hartlepool     E06000001                   13
##  8 November…    1.95e9 Hartlepool     E06000001                   13
##  9 November…    1.95e9 Hartlepool     E06000001                   13
## 10 November…    1.95e9 Hartlepool     E06000001                   13
## # … with 12,100 more rows, and 7 more variables: ICDGP_CONDITION_NAME <chr>,
## #   SEX_NAME <chr>, NEW_AGE <chr>, OBS <dbl>, rank <int>, CHART_LABS <chr>,
## #   CON_SHORT <chr>

# Filter to area of interest:
data <- treemap %>%
  filter(GEOGRAPHY_CODE == area_of_interest_code) %>%
  arrange(rank, desc(OBS))
print(data)

## # A tibble: 35 x 12
## # Groups:   GEOGRAPHY, ICDGP_CONDITION_NAME, NEW_AGE [35]
##    DATE_NAME GEOGRAPHY GEOGRAPHY_NAME GEOGRAPHY_CODE ICDGP_CONDITION
##    <chr>         <dbl> <chr>          <chr>                    <dbl>
##  1 November…    1.95e9 Bolton         E08000001                    5
##  2 November…    1.95e9 Bolton         E08000001                    5
##  3 November…    1.95e9 Bolton         E08000001                    5
##  4 November…    1.95e9 Bolton         E08000001                    5
##  5 November…    1.95e9 Bolton         E08000001                    5
##  6 November…    1.95e9 Bolton         E08000001                   13
##  7 November…    1.95e9 Bolton         E08000001                   13
##  8 November…    1.95e9 Bolton         E08000001                   13
##  9 November…    1.95e9 Bolton         E08000001                   13
## 10 November…    1.95e9 Bolton         E08000001                   13
## # … with 25 more rows, and 7 more variables: ICDGP_CONDITION_NAME <chr>,
## #   SEX_NAME <chr>, NEW_AGE <chr>, OBS <dbl>, rank <int>, CHART_LABS <chr>,
## #   CON_SHORT <chr>
…
